[gd_scene load_steps=2 format=3 uid="uid://cbph7nvfwv4nb"]

[ext_resource type="Script" path="res://game/network/sync.gd" id="1_vpa06"]

[node name="Sync" type="Node"]
script = ExtResource("1_vpa06")
